{
  "type": "service_account",
  "project_id": "elektronska-karta",
  "private_key_id": "45f64b9adc48f66bc045fafd53107e4c7fcb4d82",
  "private_key": "-----BEGIN PRIVATE KEY-----\nMIIEvgIBADANBgkqhkiG9w0BAQEFAASCBKgwggSkAgEAAoIBAQC1bzX979ccpQLJ\ncei79u1lmuhHQmNdX++QWORmJYcqzh93H6kgJdkwV7mv+l0rxPAjJ/3wW42+kQ83\nnheCpU0/obm2NyoPf6A6NFHd6CfQiarFBSecmTD1BkiFjR578PCEknfj7j1PHSns\nX+fRWvRi6myXgFrLWJZjgNOULJp6XF9py98T2ZpZ7vVXvaMoREzWIAn8vYiEwDP+\n0o7kB8u4esjPTd7MfzNnqvnVOd/ZAlKrKf1yIY9CMYTi52Cd1ALs17oAKMalWKVC\nwZOQfLTrfvK2UDk4Vfgwjaj+KBy0G6htc5mDhE4/84IrUpkBMo/bYsfw3Quo6oiT\nRn1ndo7VAgMBAAECggEAB8A7QoCtRCZBfvkci/Eh1aofO7IYnBvV2GkPwtReGKRL\nIFPsLfkn9OJ+hofP1KeaaaoS9WJ35Pj9+S6KCxUEPpBqZmAnbheR8QKcr7nz/3ru\nHnIYrd42gvU0gm4TrBBQOh2mvQhHurpAeP5k4SL9Vz90CancVx0O+au+fjFEnS8E\nCzEBSqY/j7ZCa1nAzGV2TJNVC37CC9d1S36AtYTqxf8+5swPsiK1fE5Y+FH0EFZB\n73EENTTEN2zTdGKWKsboXcKsk1rJE8nSMdQWIwIqTJVEcwOcb3FIsLghHdqJKC8T\niYtPLb8VibvAEqWQ0fQSBC61+bAncs6dYPkUZzDt+QKBgQDuiCWAlHfuQPYT8DgW\nzI7jgyOHFRQwuHLlL+gZ99KDPY3aWV/FClF9Wg2/9z8acqmP5GGUGQyJvKDQvprA\n+hwSGcPA3rNUMEvLPWqRiOdfLkCkKxpCy7ozLy9oQ9JYDLyjOVVvzybv/7Uw/4St\n9lAdSDTln4CgqiNHeUWVvIt5PQKBgQDCuKLT167TWbPyst9k474gMbbZMPdP1X2w\nMVfXmpEDXKKl/j4ndL2HsYHFEG/SGxZ3mOisztUF3rZRaqIctu+uYV9saCzIsrvL\nZnFeJLlbEMmhbaX6KxLx+BS619rsBSQdZoN0Va5JWfq3oqjSGfVyQS94QqxveqtZ\nXrjXXf1VeQKBgQDt3pFffy92Rgvf6D9W5RldYupsDCY9S8MwMK0KMGwa+qhaZaQu\nr9KB6esqU1r3ef8EAqEYej5ZoOTSJjHXXdPebRkcXjmBLER5Yj7C8T6iWVKXJHCk\nydteraBeHrxFmDYJo+RCgtb2oQ7E1RswDCDqgpZVotE351MVNKei4gpIlQKBgGK+\nYsPushc3fAttLd/ppbaJv2GwdRmk99Hrk9If7b24sjpfDYHQr3QqTdZzGWGAnwoT\nHprTYC9T2zy6SG8rTawucMd2pI86JAVnc8H7+Yr2nmkgQ3Tzdu4BkfGWGMxrZv8J\nx0utT26fFIcfE2FIDLHd4IapuOvnVxFA+ZctcJRxAoGBAOJYSxY1LBwuOrMqa2UW\nNKX2HyhOg3MPMlC2T1GtFy3EUdcI5ssJHFjtALYpabh7M0opLy+Tz3vPDd3Z1sCd\no31e8mFILq9GIW1uiU3Qil2x8A2pwA3sf15iolkYudVDfDGX49VCOI71nufv+SlO\nhmR0YfMwunK0EPvGRb2v3jRY\n-----END PRIVATE KEY-----\n",
  "client_email": "1000735240323-compute@developer.gserviceaccount.com",
  "client_id": "105190078510560634802",
  "auth_uri": "https://accounts.google.com/o/oauth2/auth",
  "token_uri": "https://oauth2.googleapis.com/token",
  "auth_provider_x509_cert_url": "https://www.googleapis.com/oauth2/v1/certs",
  "client_x509_cert_url": "https://www.googleapis.com/robot/v1/metadata/x509/1000735240323-compute%40developer.gserviceaccount.com"
}
